{
"11111" : {
    "name" : "Яблоки",
    "cost" : 8,
    "description" : "Яблоки красные спелые охуенные особенно после редактирования",
    "image" : "images/apple.jpg"
    },
"11112" : {
    "name" : "Лимоны",
    "cost" : 15,
    "description" : "Лимоны пиздатые великолепные после редактирования",
    "image" : "images/lemon.jpg"
    },
"11113" : {
    "name" : "Клубника",
    "cost" : 228,
    "description" : "Ебать какая дорогая клубника",
    "image" : "images/strawberry.jpg"
    }
}